{
    "current_page": 2,
    "data": [
        {
            "id": 3,
            "name": "Update project 1",
            "description": "Add more info",
            "status": "done",
            "project_id": 1,
            "user_id": null,
            "created_at": "2016-10-20T11:05:00.000000Z",
            "updated_at": "2016-10-20T11:05:00.000000Z",
            "deleted_at": null
        },
        {
            "id": 4,
            "name": "Assign user",
            "description": "Assign user 3",
            "status": "in_progress",
            "project_id": 1,
            "user_id": 1,
            "created_at": "2016-10-20T11:05:00.000000Z",
            "updated_at": "2016-10-20T11:05:00.000000Z",
            "deleted_at": null
        }
    ],
    "first_page_url": "http:\/\/localhost\/tasks?page=1",
    "from": 3,
    "last_page": 6,
    "last_page_url": "http:\/\/localhost\/tasks?page=6",
    "links": [
        {
            "url": "http:\/\/localhost\/tasks?page=1",
            "label": "&laquo; Previous",
            "active": false
        },
        {
            "url": "http:\/\/localhost\/tasks?page=1",
            "label": "1",
            "active": false
        },
        {
            "url": "http:\/\/localhost\/tasks?page=2",
            "label": "2",
            "active": true
        },
        {
            "url": "http:\/\/localhost\/tasks?page=3",
            "label": "3",
            "active": false
        },
        {
            "url": "http:\/\/localhost\/tasks?page=4",
            "label": "4",
            "active": false
        },
        {
            "url": "http:\/\/localhost\/tasks?page=5",
            "label": "5",
            "active": false
        },
        {
            "url": "http:\/\/localhost\/tasks?page=6",
            "label": "6",
            "active": false
        },
        {
            "url": "http:\/\/localhost\/tasks?page=3",
            "label": "Next &raquo;",
            "active": false
        }
    ],
    "next_page_url": "http:\/\/localhost\/tasks?page=3",
    "path": "http:\/\/localhost\/tasks",
    "per_page": 2,
    "prev_page_url": "http:\/\/localhost\/tasks?page=1",
    "to": 4,
    "total": 11
}